{
    "title": "乾坤大挪移",
    "xid": "abc-99",
    "version": "1.0.0",
    "cal": 0.1,
    "demo": [
        [
            176.89861850433076,
            121.64971413066384,
            187.17535856938179,
            112.49216994696977,
            164.49041586952563,
            111.17249117719719,
            198.51129073767086,
            124.59329758648511,
            146.54768177020367,
            124.26120500345714,
            220.24710068828526,
            167.05155388296112,
            119.31435853968912,
            166.22320039624552,
            290.3289066622467,
            130.21865925033296,
            57.004778758265964,
            121.00346695687455,
            233.5807825570484,
            75.11376828677963,
            129.93710351586265,
            72.51046601200534,
            212.11757192626433,
            253.3262222611147,
            132.1273965495553,
            253.50785688557107,
            266.07925406923266,
            200.8056180603055,
            139.54066645815718,
            225.13638544459735,
            210.56491318581269,
            226.9794653277225,
            157.85553923758573,
            210.9831217143097
        ],
        [
            176.85995697027963,
            121.4279986533996,
            186.9927500255166,
            111.99562311482673,
            163.81557127122122,
            110.91215446508083,
            198.5522830361093,
            124.45261931951585,
            145.1072108328659,
            123.93440482799855,
            221.3437827907769,
            167.0496023769925,
            119.66636195398367,
            165.7081997681885,
            289.14510073450845,
            128.55814401365436,
            58.822706666534046,
            121.5269129401578,
            236.97312396623113,
            64.86173539268722,
            125.08897454493675,
            60.1755266444156,
            212.72028962137318,
            253.65882556118737,
            128.50808132768083,
            265.03786038834517,
            265.5338012839337,
            201.6436055330049,
            144.7460289551976,
            224.35569292480852,
            211.78764792057746,
            228.28663936902598,
            52.407694976503976,
            234.36970367297434
        ],
        [
            176.6564881342261,
            120.94416513192616,
            186.82863796155863,
            111.98136820537631,
            163.55650516572302,
            110.58049559478472,
            198.0836132988067,
            126.68305795493504,
            144.88606894943135,
            123.93674768581387,
            222.20067372925888,
            167.82985321745846,
            120.27812953899529,
            165.85243743904437,
            286.0863774328143,
            125.87872129136797,
            59.788229545281446,
            124.58303436890577,
            243.3559850523595,
            58.184097422068334,
            115.8683417665033,
            47.651464673643574,
            214.5110659242872,
            253.20930914624722,
            129.20900944226423,
            268.50881309029904,
            266.2591794227712,
            202.88260134093144,
            146.41171523878353,
            205.4364074217633,
            244.7957184089968,
            59.80304320917124,
            112.2494206309122,
            46.831459478469036
        ],
        [
            175.86031130451346,
            121.15901430052293,
            186.2379175663065,
            112.03642124997512,
            162.74573106040205,
            110.72851563877234,
            198.2044434291401,
            126.66162913816551,
            144.83066814717785,
            123.94395486037217,
            223.4837533840971,
            165.80543413622482,
            120.93314129840023,
            165.68061515400913,
            283.52898848666007,
            123.91518178732827,
            63.36093443181228,
            123.86641533812508,
            250.32611346815358,
            48.49551335152447,
            109.11836324140751,
            31.867805242873807,
            215.3601862746339,
            252.45886639403926,
            133.58225217566405,
            257.64760217816894,
            267.0731839709733,
            204.12974553692158,
            152.81710386873598,
            211.43194916073475,
            251.68568448788645,
            48.78444080202371,
            108.97018708529424,
            30.11585817627379
        ],
        [
            176.07839397111468,
            121.13495094830665,
            186.17298000152545,
            112.16168344219378,
            162.73176985833067,
            110.59550227326443,
            198.25049292796803,
            126.83581820141431,
            144.9452210011685,
            123.1875238943808,
            223.5052753214992,
            167.23324620383474,
            120.16411369516169,
            166.01848459048597,
            280.8949107407793,
            123.22427609994226,
            64.44060160003255,
            122.2930062598198,
            256.2237567582993,
            40.09510063760627,
            102.0930152775513,
            22.374735412919392,
            215.54702678095904,
            252.62431485425705,
            129.92367722302805,
            264.2581768561023,
            267.7869314849982,
            204.41593549226036,
            140.95725551840798,
            184.53609186401263,
            257.77593356236395,
            39.02091694634343,
            100.54892218319459,
            18.700275859952455
        ],
        [
            176.12008561362046,
            121.15159956213321,
            186.06426390979016,
            112.13427548872146,
            162.68398283029364,
            110.5195555343248,
            198.44443001906367,
            126.76502656027937,
            144.94523662865228,
            123.12635400129014,
            224.00224368849234,
            165.2141394960337,
            119.67592019636145,
            166.24990583449653,
            279.63476731998554,
            123.2865450361723,
            67.311106148585,
            122.33954214857837,
            260.93762249185386,
            36.92221557507001,
            96.30866100609033,
            16.733261065629954,
            215.65963527432157,
            249.37963642369243,
            133.4108009390086,
            256.32200781012267,
            267.62629457401454,
            204.1531696729775,
            67.2271392022805,
            121.66811870410356,
            262.0445129073353,
            34.02071303338338,
            96.8366242576613,
            14.4721867638337
        ],
        [
            175.66472785276284,
            121.66953418394232,
            185.83765234210287,
            111.91093709567974,
            161.93956738115952,
            110.42082983769443,
            198.49126399162148,
            126.43956376660284,
            144.81494642549103,
            122.40442676503622,
            224.10382360406658,
            163.54518777652729,
            120.80512928476546,
            166.15137338499807,
            274.24535525727384,
            128.41233722417897,
            68.27793427032175,
            119.85893713326793,
            286.84166359385296,
            24.046946677876132,
            66.18857828409244,
            10.588714222188251,
            216.44069602109926,
            250.95952903087903,
            134.1468782987511,
            257.0002813499403,
            268.1395964550555,
            144.81883924158737,
            69.97576450764578,
            115.89962484856217,
            287.33378423525505,
            22.951549570164918,
            67.15792370067862,
            7.678625420571147
        ],
        [
            175.05380969978418,
            121.77533633656762,
            185.55105485464009,
            111.99271376988473,
            161.2703239846641,
            110.6492526798644,
            198.24148111857272,
            125.16593910546331,
            144.1308124895362,
            122.37488729357317,
            223.62767414950272,
            163.87839005004875,
            121.10393695817274,
            166.44660488431464,
            273.69611455478986,
            128.0814918347829,
            70.80881708777154,
            117.5679139249142,
            294.269971048427,
            24.397250723795544,
            59.363118744839944,
            11.529269203638862,
            216.21198909707255,
            250.97398326020405,
            134.07268539292295,
            257.62468528314196,
            268.02757388301967,
            144.87279761356507,
            72.19258401987642,
            113.99283179023853,
            296.23515473930973,
            23.215665495736186,
            58.84224624254044,
            9.368766609797044
        ],
        [
            174.84417198776026,
            121.8392959567897,
            185.38971278837852,
            112.18554448277672,
            161.03533433554188,
            110.95453632536051,
            197.98318359876546,
            125.81536100717446,
            143.96890398407794,
            122.60090843340248,
            223.66008554371973,
            163.89013251170041,
            121.14803496067381,
            166.95638445740414,
            272.42333612800917,
            125.69915664835318,
            73.0793280083124,
            114.00665036601148,
            300.4899821705658,
            25.311768097504046,
            55.351614140361775,
            11.167177150280192,
            215.6723719577834,
            250.84406281537755,
            134.09156849336998,
            257.6038998213498,
            268.3964441968686,
            137.83531403072143,
            73.84311664538365,
            113.04306072152959,
            303.0205983388583,
            21.292266645585038,
            54.939586613365535,
            9.8488781225307
        ],
        [
            174.92867893282215,
            121.60710311690808,
            185.4204248924681,
            111.9616342365521,
            160.76958898991091,
            111.118923768127,
            198.70897340080592,
            126.16329021466983,
            143.57397285803754,
            123.62642977609795,
            225.67669722300707,
            164.1214963347755,
            122.95828174877676,
            167.21357341394975,
            271.23321420310754,
            127.52810717979877,
            74.66589730243004,
            112.18958312495154,
            307.38243995403434,
            23.92434157991414,
            48.43610737667686,
            14.412141795436115,
            213.9669893831304,
            251.93892063927723,
            133.75935470836998,
            257.5881546825087,
            270.76919870131854,
            202.32481509676114,
            139.3506379459193,
            188.4895612380369,
            310.14555247635013,
            23.660203385964483,
            47.73880528570933,
            11.760131602603687
        ],
        [
            174.62346284803544,
            122.03608406988694,
            185.11596202279844,
            112.15380748343786,
            160.53644568205794,
            111.62786335867862,
            199.02193622662816,
            126.14976380769477,
            143.47046366730157,
            124.43236210405324,
            225.25268882807498,
            164.85622157622737,
            123.95518346835266,
            166.99663610296506,
            270.4572466812267,
            127.61546367712478,
            80.9101555503365,
            107.81902345598037,
            311.2975020181151,
            28.171433024400713,
            45.391552996222835,
            18.62267718280138,
            212.77902956111524,
            251.66748929276937,
            134.30881659639837,
            250.15834695680445,
            270.8324327128404,
            202.32110664900318,
            139.4553796524753,
            188.9569937737321,
            313.0519202637647,
            26.698654743487786,
            44.51065724266121,
            16.885128084490137
        ],
        [
            173.92667414829566,
            122.12280774068952,
            184.50464647279827,
            112.3661484788998,
            160.74145350521943,
            112.09832404111371,
            198.98779664492355,
            126.61153113198748,
            143.8374086530685,
            125.62556336500126,
            223.57168519894145,
            167.34355741058457,
            123.59079701167771,
            166.5269666688027,
            270.83243835539946,
            101.25415768790629,
            81.59102625123693,
            109.00597807687406,
            315.11628134725964,
            32.74080390149937,
            39.57682366562477,
            23.36990437082714,
            211.9542061936378,
            251.33524233098998,
            135.18620465926654,
            249.8183066542938,
            270.3974117365485,
            201.82370288041636,
            138.49207197656182,
            183.92409701439036,
            41.957700003249734,
            21.10094184452884,
            40.62915371589565,
            22.516409954981736
        ],
        [
            173.88553286060284,
            122.10930755618253,
            184.53852368659153,
            112.35450782367087,
            160.89295308817748,
            112.14483543099574,
            198.93278654645508,
            127.05529430161299,
            143.94983244221646,
            125.83559339966686,
            222.98812114686314,
            167.39359734423545,
            123.71345682047304,
            166.54312540924465,
            272.4123041744747,
            101.07523834626096,
            80.64705889258322,
            109.82024626279251,
            313.4673260212847,
            39.07436796262199,
            39.015910354115185,
            23.3753657959881,
            211.73955513979652,
            251.0883829905097,
            135.21806306289207,
            249.45990329914926,
            267.49722011981993,
            139.87067404741217,
            138.7781282881732,
            183.32227938435946,
            41.073964005272494,
            21.10426892609696,
            40.61368265998412,
            22.42711450200431
        ],
        [
            174.05276546781695,
            121.63238590833286,
            184.90245627541438,
            112.16976232218421,
            161.32375558600864,
            111.91210256998363,
            199.19109001269544,
            127.4780019949077,
            145.5747775962478,
            126.02858474941142,
            223.14066680627644,
            168.38329777225454,
            126.50928568764705,
            169.68197162076885,
            272.1357705678961,
            104.13230262773807,
            80.32150099096549,
            112.1603235111247,
            316.4059576952876,
            55.05763727094658,
            39.45608115914787,
            24.503166750686198,
            211.8726711301949,
            251.12811258978587,
            135.07989123210857,
            248.9850165408706,
            270.15244038146886,
            201.59094545178357,
            138.30625872104855,
            182.50650742625422,
            40.57626145787338,
            22.277490376327048,
            40.44152090379015,
            24.326887253142676
        ],
        [
            174.45935833754362,
            121.54591694815365,
            185.2518673367138,
            112.19001717139096,
            161.9394716212031,
            111.84109506920313,
            199.43623378126787,
            127.23523743526435,
            146.3272511556499,
            125.35288540398865,
            223.81479419231295,
            168.60057172557197,
            124.63521324787514,
            165.9454834506682,
            272.5735241841559,
            107.08558144471277,
            80.66410795755722,
            112.71305003808308,
            312.97997089318994,
            60.342282160687446,
            39.10971617077844,
            23.711200316098402,
            211.13191881193956,
            251.45745399176428,
            133.78095946496438,
            249.5745133902489,
            270.1716439438322,
            202.45222608208442,
            138.59093868688416,
            182.01293731418014,
            40.2709005660183,
            21.843018331090143,
            40.20155321188938,
            23.723483821844436
        ],
        [
            174.67177157033692,
            121.5486738548834,
            185.3977927619776,
            112.25837076826356,
            162.18011847472295,
            111.84295340221882,
            199.51682263891573,
            127.23562348810528,
            146.61285782645604,
            125.31900687204315,
            223.88158601106707,
            168.37835488427376,
            124.64396696530491,
            165.61726181090523,
            272.5145499491953,
            109.78050485361607,
            81.18650486129035,
            110.25994720548076,
            313.047343325322,
            60.53095151350333,
            39.17216199066532,
            23.6582329393061,
            210.96484335165235,
            251.20091915457095,
            134.07695009105092,
            249.45267905385154,
            270.1457451867757,
            202.58918352300788,
            138.70259921428288,
            182.00810341152578,
            40.0987327527734,
            21.92655650192993,
            40.09234627246418,
            23.604508416981115
        ],
        [
            175.05746623138003,
            121.42314979038292,
            185.64213468088442,
            112.40335277012323,
            162.71172420191434,
            111.80782573405355,
            199.7509068940681,
            127.6214941612437,
            147.05717992390134,
            125.2529624816057,
            223.692172399357,
            168.00329682922646,
            125.04170529982188,
            164.81219793930825,
            272.7083160431317,
            111.19343310908347,
            81.24150953578712,
            110.01701840164063,
            313.65255849624907,
            60.542001795579814,
            39.08483500770814,
            23.60317795451484,
            211.66811766052777,
            251.19141106967842,
            135.23957618819907,
            249.51187861672597,
            269.6956612438385,
            201.650837906836,
            139.6279922656654,
            182.07273138844477,
            40.52842175022788,
            21.904384179744028,
            40.19898465015789,
            23.48240487844963
        ],
        [
            175.30139623170766,
            121.44343149876613,
            185.79845509376455,
            112.46236783493033,
            162.9071827536166,
            111.84336507566793,
            200.02390729657904,
            127.56891076794682,
            147.13201954776503,
            125.2706985941837,
            223.6639542515075,
            167.93908755576842,
            125.0723319305078,
            164.55664320060612,
            272.9160367338188,
            111.69104584197059,
            81.18449362228661,
            109.65819374179175,
            314.5983667440128,
            60.01093008926584,
            39.784993227193524,
            25.488393447952923,
            211.72794294064772,
            250.9536464312335,
            135.85349739280932,
            249.33452240088994,
            269.4283434388495,
            201.7603082814729,
            139.95579476315862,
            182.07097735150967,
            40.14041139308553,
            21.7975096686582,
            40.03874576492642,
            23.22621253429933
        ],
        [
            175.66056421148122,
            121.44806839421443,
            186.17591374561607,
            112.45975752950113,
            163.21865355676664,
            111.85324607652423,
            200.7844980977788,
            127.4489961309508,
            147.2960830829339,
            125.31809778668921,
            224.3117218464617,
            167.9350694850185,
            126.20069535821257,
            164.88062477039713,
            275.2969556027025,
            105.86063213101815,
            81.25977085612985,
            110.7639620798854,
            316.31059537245756,
            59.327360048507806,
            40.12289718446286,
            25.49810207960856,
            212.16245457033284,
            251.37818077738916,
            136.05354152081392,
            249.70702963770583,
            269.6957281833747,
            202.51967376944592,
            144.94028520357352,
            195.50523964530316,
            40.258187751407775,
            21.487717585876094,
            40.0253004505348,
            22.80872426022698
        ],
        [
            175.92762742859293,
            121.60081327832545,
            186.3749813108346,
            112.54462962997209,
            163.48195495790006,
            111.84597121304529,
            200.782912242247,
            127.49115901593082,
            147.4728115127236,
            125.19020630120183,
            224.43814173084638,
            165.633061674225,
            126.77707301806295,
            164.98792662472684,
            277.4689284703628,
            103.96260972136903,
            80.63114318928704,
            111.22489679382036,
            315.8854997517869,
            60.344132246338575,
            40.47109717121346,
            23.305725079298306,
            211.8811957241903,
            251.19965718591519,
            138.90319829916774,
            249.9242514490546,
            267.79738134734936,
            189.36570683395973,
            140.41532851956208,
            182.78414689861137,
            40.93652414529687,
            19.236504629331684,
            40.348864017005724,
            20.58362437908001
        ],
        [
            176.027360655652,
            121.63535558654378,
            186.41457829403723,
            112.59166808937496,
            163.56754098908317,
            111.80238008057046,
            200.7240516219987,
            127.5487554074553,
            147.45971399996546,
            125.13583688165274,
            224.10227487371952,
            167.00383548245284,
            126.65326098144087,
            165.3957501980597,
            275.7636294834474,
            115.07556081208597,
            81.1659641779693,
            110.80915919485318,
            316.0341329592438,
            60.11414376066095,
            40.894256270232454,
            21.893414187421865,
            212.1099928105778,
            250.8823119273085,
            139.3539686749676,
            249.93179010453946,
            268.28498489981405,
            201.7122175794555,
            144.74713433737864,
            187.9279835196897,
            40.83813670777988,
            18.886598074331623,
            40.41888828180832,
            19.19519705642634
        ],
        [
            176.31966317124255,
            121.6177300374479,
            186.38564539449874,
            112.71117463464928,
            163.7009712232209,
            111.7901481622073,
            200.15839465473397,
            127.35025593018428,
            147.24649491198804,
            124.80856338043628,
            223.75722213962902,
            165.9506009731317,
            124.7312294054976,
            164.85818387730995,
            273.09722969727363,
            124.75055589414906,
            79.23209958219964,
            110.9093034745598,
            316.04506482815094,
            59.58319618216069,
            41.58565755239042,
            21.375042809043304,
            213.089013953918,
            249.9861156735005,
            135.94373064626913,
            250.11458394867296,
            267.7353136227631,
            202.2244465370857,
            146.19697560294168,
            195.04488768688248,
            43.300347337201885,
            17.283446221935133,
            42.2713847700599,
            17.998073305244453
        ],
        [
            176.6130036469142,
            121.65088924362784,
            186.42091446225353,
            112.7685177837616,
            163.70754470068024,
            111.70707370961513,
            200.2469796239257,
            126.82120060487567,
            147.00652934181934,
            124.68117381190548,
            224.78128579456728,
            165.42339963732707,
            123.35705936071813,
            164.88382720599097,
            274.2278310883606,
            126.78814198659077,
            76.24919495896476,
            116.26701721406914,
            318.2853561291832,
            55.75505878660525,
            42.63516639791987,
            17.159608850266796,
            212.37875534955725,
            250.18780253154398,
            134.7442372700015,
            250.06147427835538,
            268.7744515094266,
            203.81521685404027,
            146.07682353366184,
            195.96843135469155,
            44.634357130363966,
            11.7294134728838,
            43.83683595294905,
            12.648782770092732
        ],
        [
            176.2543629338541,
            121.96069624174046,
            186.3109124751807,
            112.75477734323039,
            163.48472216520778,
            111.52246644879925,
            200.01481602901055,
            126.32327125152142,
            146.84216593478078,
            124.37972847304108,
            225.76391135644246,
            164.96859600068663,
            122.28924195309634,
            164.94448934654082,
            275.3819214993501,
            126.71549153192758,
            75.4877071692262,
            122.73847036747361,
            312.567091478898,
            41.71061335507924,
            47.4887218262615,
            13.197887754417406,
            212.38330384161708,
            247.65827605214517,
            133.225017153292,
            252.5409610989281,
            268.7892736402448,
            204.01003551750534,
            140.3796481242507,
            184.24511496937293,
            48.54155285977916,
            10.77331529520231,
            47.3708879874642,
            11.533690276831981
        ],
        [
            176.21677193889695,
            122.27518882838638,
            186.20581561872643,
            112.78398158739932,
            163.25513644318872,
            111.54099709571021,
            199.53789306523404,
            125.58962300333141,
            146.75018794396547,
            124.11484446184289,
            225.52704387127957,
            164.97820268664873,
            122.30442004306836,
            164.84645377369213,
            275.63017376404207,
            127.59146149084825,
            75.62875959001974,
            124.32689547186857,
            311.15245775816504,
            46.60753003462593,
            50.26520588946278,
            14.064074636764596,
            212.23125097105935,
            246.78750460759235,
            132.92362776242388,
            252.21155110796127,
            268.29946590373856,
            204.06445112022263,
            140.7791844141826,
            183.86264746738914,
            51.478364466879384,
            10.489984048720356,
            50.38165339761147,
            11.196645987294923
        ],
        [
            176.3361567795971,
            122.2365530210301,
            186.24230615387884,
            112.76587865901719,
            163.16617224397018,
            111.42017642921029,
            199.68250695581585,
            126.51917944962403,
            146.55244118721745,
            124.16784851842093,
            225.94676357390858,
            167.00596297443334,
            122.68218381037852,
            165.08870547775737,
            273.44777695241055,
            136.15040428060624,
            72.93900854622703,
            123.91266578273459,
            317.71275304906567,
            42.02878545474708,
            56.06877675700267,
            9.71222589707825,
            212.13685290997057,
            246.84458458342536,
            132.99763711754431,
            249.580280591096,
            268.29201024835544,
            204.26420972046998,
            146.59531821977333,
            195.920229649983,
            163.98355541087525,
            226.79116509380262,
            55.98910345771496,
            7.218233980604585
        ],
        [
            176.35380299795082,
            122.32521329202675,
            186.2326149480847,
            112.78938060548305,
            163.04607774728072,
            111.4168878393512,
            199.7706228822744,
            126.6193099874246,
            146.38527065793065,
            124.0763952617516,
            226.29375297304549,
            167.45145516421738,
            122.51996722588191,
            165.05652553481343,
            274.4591829201823,
            135.1373449027156,
            72.36887595381744,
            124.56518191912149,
            316.9876719782277,
            39.43483475145943,
            59.41450658721672,
            8.736110374509863,
            212.16049538230723,
            246.9082202598782,
            132.43735953467933,
            249.6833034867717,
            268.17331377710536,
            203.96987289322624,
            147.72612143939025,
            196.06556305546292,
            164.41986284461683,
            226.75897517381497,
            58.977870285335015,
            6.075387059270618
        ],
        [
            176.31985476037428,
            122.4230256084445,
            186.17307698083454,
            112.8651195563532,
            163.02599847922028,
            111.56715648556161,
            199.79639452581404,
            126.50245613813173,
            146.47827920454034,
            124.05589021667475,
            226.62620424900996,
            168.0847710763126,
            122.08639724750263,
            164.78422424666277,
            276.6225134072404,
            138.19114099803667,
            72.7996000390176,
            124.64428579295266,
            313.55794220954647,
            33.34964862662068,
            67.77912123350711,
            9.723868091823062,
            212.7656953690087,
            247.27755855447077,
            132.49746788136756,
            250.43181483285403,
            268.1122358027892,
            204.53435577618677,
            142.04464612430604,
            184.98263963178437,
            309.4842928984487,
            31.832118744732696,
            67.52947223959583,
            7.164976980623852
        ],
        [
            176.41535943820884,
            122.40748693849008,
            186.21894234874335,
            112.8955101379562,
            163.13598743363016,
            111.52177745575088,
            199.76385401930617,
            125.50481374064559,
            146.58553691001345,
            123.7307041099005,
            226.5396717822898,
            167.98818717849286,
            121.52855022596108,
            164.15820363649837,
            277.2036579374942,
            137.6831240528293,
            73.3347704447027,
            124.73108855043456,
            312.0157700766101,
            32.83158641641906,
            70.72573127722804,
            7.39021558478111,
            213.1219313750749,
            248.05021891161664,
            127.72971784080319,
            254.75264214552755,
            268.07928990077966,
            204.86186071284806,
            144.93635329484587,
            227.32244821666214,
            309.22750046375563,
            31.800285011503053,
            70.69475774079159,
            5.553026616087359
        ],
        [
            176.54213080822512,
            122.45610575408956,
            186.33834032899034,
            112.81547931041764,
            163.41441488861705,
            111.42539617965905,
            199.72462503074976,
            124.76712591696251,
            146.95235398673205,
            123.03584600031488,
            227.4071587898608,
            165.29127252546428,
            121.5130707396838,
            160.89436424708322,
            279.6150571870653,
            137.46999095945785,
            71.57989121790642,
            124.61235614286747,
            308.5680796231143,
            37.136328932872054,
            79.90976151370872,
            9.349167245834325,
            213.03552842935417,
            247.54228206001704,
            126.34455577164653,
            254.14840817124795,
            267.90953282368474,
            205.02412095618703,
            145.2090733941768,
            227.92573957992323,
            311.04318189946804,
            34.80904489235724,
            79.52339565271448,
            8.075893209127463
        ],
        [
            177.14858246790465,
            122.33822339729066,
            186.779754133337,
            112.77486484110952,
            163.93624949437626,
            111.32739170784133,
            199.50166038678935,
            124.75621480652188,
            147.6565577699604,
            122.70475218911899,
            224.99456927856173,
            167.3307144726046,
            123.22790515456539,
            160.07940817517147,
            280.9537515920117,
            138.0245208232421,
            72.49803557435882,
            124.07823403522785,
            304.63228243557535,
            37.796515467532416,
            94.29932506633585,
            10.626170244737587,
            213.2812464798695,
            247.50765971818606,
            126.91311656150165,
            254.10234862052198,
            266.8006453873968,
            204.24911042175336,
            146.33165978611626,
            226.88067282662203,
            306.04835207470774,
            35.962032517087884,
            93.34840202624912,
            8.492692856860192
        ],
        [
            177.34391145033658,
            122.29422322090808,
            186.92168219378317,
            112.66208133108567,
            164.01369704735316,
            111.32153603805793,
            199.53673648855133,
            124.49209137060473,
            147.80454229386945,
            122.63178679794258,
            224.61826978633093,
            167.6550267021867,
            123.46088872101492,
            159.79529548914448,
            282.1289793393958,
            138.41601911484443,
            73.23479756192623,
            122.8656540457502,
            300.62949702757885,
            39.30828905517054,
            95.46193757910116,
            11.519975618187024,
            212.80403386567184,
            250.30540448109076,
            126.49157104105043,
            254.19615045775737,
            222.25033374803468,
            233.2959810460912,
            146.10035530686656,
            226.2954662681088,
            302.23649463784335,
            35.1721171004023,
            94.55499139995482,
            9.256997797842628
        ],
        [
            177.54610274326222,
            122.16311999685585,
            187.12692530245482,
            112.49703128766515,
            164.09638168155357,
            111.35183891099433,
            199.60393751313705,
            124.19669083704366,
            148.02064285852788,
            122.61210113519604,
            224.39288068813516,
            168.1103337177404,
            123.53733093401954,
            160.016997759197,
            283.6231044031332,
            139.4555303137089,
            73.11074372249195,
            124.07910227442423,
            297.8668646783893,
            38.90346249932995,
            99.14340791164966,
            14.859059144443862,
            212.2979972076381,
            248.29719552352876,
            126.37036669133818,
            254.01068299668313,
            221.54012506676685,
            233.04410385845583,
            146.4786835064594,
            225.1803962352232,
            299.3484082506587,
            36.97301926410979,
            99.92591643627568,
            11.943024574109732
        ],
        [
            178.77579598564756,
            121.4336265601542,
            187.864009975889,
            112.30321298662219,
            164.4806660003079,
            111.30719860009911,
            199.96167506343625,
            123.65104867036194,
            147.9507123457075,
            122.75651492670255,
            224.8550807847418,
            167.9945598608739,
            121.16657359134093,
            160.22608029909932,
            285.66470991155643,
            138.94122827380886,
            73.94385853795286,
            119.85274709990152,
            291.23094720474455,
            41.449568448231396,
            108.63034842526928,
            16.089699106341957,
            212.1015773846045,
            251.23878406826645,
            126.32462602100463,
            254.5540380682994,
            266.61289943175564,
            204.47534319548168,
            146.0270038263089,
            226.62505606627673,
            293.8611127165063,
            38.22876186735072,
            108.51515414301193,
            12.909318320642395
        ],
        [
            179.61374448225337,
            121.57325257435468,
            188.55110603632556,
            112.29800669917958,
            165.37102620057442,
            111.435722791999,
            200.738462888705,
            123.425495062186,
            148.5404698479548,
            122.58859474155378,
            225.41074445425394,
            168.10338530571295,
            123.41766544845038,
            159.28482763445103,
            286.68205685313,
            139.54645702363374,
            76.02272051976671,
            119.99155248954756,
            285.8097286076138,
            46.13092600765926,
            113.07106892010634,
            18.121939591363894,
            212.16196996459433,
            252.41245676058048,
            121.4809786637476,
            258.01002144344784,
            269.0275612999142,
            205.07629732800436,
            42.676773604005845,
            235.34885009335247,
            288.8144396757223,
            43.86616119083467,
            113.12865143348353,
            15.43069482718583
        ],
        [
            180.1845864033171,
            121.60154062762116,
            189.03914256980715,
            112.20478399416226,
            165.75885780386884,
            111.25165907322362,
            201.09814043755011,
            123.23567798315389,
            148.7253795528423,
            122.43300340528718,
            225.788677091312,
            168.0516411643857,
            123.84278699051939,
            159.30804037160155,
            287.0642132039772,
            138.8625498182826,
            75.96480218700533,
            119.92949685913908,
            282.99149465304833,
            46.00417305534857,
            117.24334399350158,
            22.221008585049027,
            212.48730269099116,
            252.79969277098377,
            124.14615797705011,
            255.99447527552402,
            268.7167883627628,
            204.4225113198225,
            43.089742296761955,
            235.89125285311658,
            284.45367392063724,
            44.556423657365826,
            117.6073600817146,
            18.257063885802907
        ],
        [
            181.19568501624713,
            121.40012078208032,
            190.4610115579302,
            112.25655867883856,
            167.2298366371765,
            111.01357397090061,
            202.05511203920994,
            123.49920335144026,
            149.62483244410384,
            122.13091684451769,
            226.53494117964578,
            169.02892968287642,
            125.0043240753267,
            159.70079530205328,
            290.0972201283523,
            136.70183445978302,
            76.88634388703792,
            114.98271926110239,
            278.6151092164181,
            51.70527624044765,
            124.31197715773757,
            25.665125277884943,
            214.4183957158354,
            253.04365225146068,
            125.62743540821005,
            255.19662214354244,
            226.0887631595543,
            234.77002203966293,
            137.48799971342174,
            232.26431694331887,
            280.96210893270296,
            48.64964867599736,
            124.21835646731422,
            23.565054603160362
        ],
        [
            181.73072595782725,
            121.25986098541263,
            191.04400429228718,
            112.24165070568641,
            167.85546932189607,
            110.94111178414296,
            202.93533605735516,
            123.5936115867626,
            150.456859364268,
            122.10485186353513,
            228.3657405368104,
            168.73120929161854,
            126.331777561974,
            159.91093048839312,
            292.9929095232417,
            136.62727648255668,
            76.64382606137166,
            115.48056524058899,
            274.2512842438483,
            51.62140607901526,
            127.52465481202991,
            27.59095262440987,
            214.7188044135607,
            252.4233404659114,
            126.44973015853412,
            254.73147455016186,
            267.9045828287179,
            204.01493559370238,
            139.09835375896532,
            233.2895730109144,
            276.9584395618568,
            50.27304361854049,
            126.53565674603905,
            25.535351881327664
        ],
        [
            182.84901849331686,
            121.19492145876957,
            191.983153945461,
            112.33667801952788,
            169.05782372046158,
            110.9968538175413,
            203.5956168807867,
            123.65729151778581,
            151.17749141064218,
            121.89556454443542,
            229.4158803425867,
            169.47532053341448,
            126.32846634663113,
            160.01183951337157,
            295.1052338575521,
            136.88033289462885,
            75.90096813578977,
            115.20165251819412,
            273.7614459752792,
            52.78244911331398,
            130.72705009572783,
            30.248776200331683,
            215.90277741430046,
            255.9839266923018,
            126.17305419371858,
            255.49889407007217,
            227.3800716102383,
            236.51586184180314,
            130.381775214808,
            233.7490507994766,
            275.9242845213387,
            52.097275538921814,
            130.2732903136708,
            28.163012383257847
        ],
        [
            183.11633215878953,
            121.44795349546905,
            193.19476625314394,
            112.40535469014662,
            169.472569220372,
            110.8475786065645,
            204.8567279489646,
            124.13758881782306,
            151.46834999611613,
            122.42463422660619,
            230.8354957461037,
            170.6433903087358,
            127.29565655743659,
            161.50927863724712,
            297.6016217121093,
            139.06386884059592,
            74.78046959607003,
            114.10477695995671,
            269.5681661628274,
            54.750345257159715,
            135.32682187109998,
            39.34805437748939,
            218.62413854801002,
            254.7774960749422,
            128.7806078583157,
            256.1201090372567,
            226.63907349071962,
            235.06101325152423,
            137.91639825914268,
            233.33146187440101,
            270.05483254269615,
            54.653507501667534,
            134.67218901854946,
            38.27547256439487
        ],
        [
            184.83515302290613,
            121.56857497252982,
            194.31104450164096,
            112.96417456548495,
            170.8814435186252,
            111.17306384731816,
            205.35458754799436,
            124.58216880575944,
            152.1928060880741,
            123.08847643114854,
            230.66039404640372,
            170.61822210734812,
            128.15841791851128,
            160.99205797805493,
            301.2301218426284,
            140.29618691125614,
            73.85712110542532,
            111.07945656443462,
            264.1881900711261,
            59.59480433449387,
            139.88414348354888,
            46.75739276836116,
            219.14931786588227,
            252.83689077264674,
            132.38020705264418,
            255.49072823072805,
            226.74006819066048,
            234.16151641449733,
            122.03153727439059,
            230.92855407868706,
            266.0753823349735,
            59.578740022226704,
            106.45066797951657,
            224.11499564248894
        ],
        [
            185.1116772096072,
            121.49641213314175,
            194.88444683472184,
            112.99547328532115,
            171.91181214761218,
            111.31704105201034,
            205.45259414223383,
            124.63908795018806,
            152.2060598103592,
            123.35981760072667,
            230.9632914944101,
            170.46577808998902,
            128.25768550400147,
            160.7204395307537,
            302.20492927338415,
            140.7759278911563,
            73.37569055954334,
            109.97014084455998,
            261.38605000876305,
            62.16615747484157,
            145.0340999036217,
            51.534558172427246,
            219.7300822598461,
            252.17828443048126,
            132.74018404045876,
            255.1849648333458,
            228.39053850254683,
            234.94671856980915,
            138.4215323482871,
            231.43808545702194,
            262.94542065060494,
            64.79721962367587,
            112.35054585605457,
            226.4410597309794
        ],
        [
            185.7683498119263,
            121.25349243540603,
            195.88683384550535,
            112.93678605762061,
            173.28246350938974,
            110.94675796728947,
            206.6418441979373,
            124.47252165919502,
            153.8308845978523,
            122.81025001516782,
            231.6058854923636,
            170.6539306543616,
            130.22322872258002,
            160.69374165920192,
            303.0108807026409,
            141.7804488438184,
            72.85465424116326,
            110.62195649030699,
            255.4143228200191,
            69.92474497767057,
            152.33632630628313,
            58.2964767965292,
            219.8986440262024,
            244.44172047587156,
            134.07195458497637,
            242.41264397996108,
            311.0850798069078,
            235.8951536327407,
            122.15067468408115,
            230.07862012883695,
            218.00616081860983,
            227.51211464642884,
            135.51941864176638,
            224.03469410219094
        ],
        [
            186.30268836207,
            121.26938562916506,
            196.7691445265247,
            112.62195863977011,
            173.57100823111352,
            110.73279753540479,
            207.74972365040836,
            124.4516485857048,
            154.6145458591678,
            123.00816845659557,
            231.9660492177563,
            171.04731514819932,
            130.5690535179513,
            161.28715781583412,
            302.70980850927447,
            141.77104973736536,
            71.98247350058867,
            109.69653489183774,
            253.34620726754636,
            72.98414964169143,
            155.98383423377234,
            64.62675163910707,
            219.09863077070747,
            246.4094869522617,
            133.07707096844382,
            251.68900501123028,
            316.7343701141211,
            237.98700930384607,
            119.89913642383917,
            231.41388132137493,
            253.30393033955352,
            77.50117477763621,
            112.77528906221029,
            220.9794493993273
        ],
        [
            186.10390744535226,
            121.26222318547819,
            197.1485236697685,
            112.3318189000632,
            173.63142271865573,
            110.53579635786825,
            208.23910559624963,
            124.75729807070387,
            155.27218729382383,
            122.84174633952696,
            231.74422514383366,
            171.043274029049,
            130.73354200376392,
            164.998046942335,
            302.4487168087861,
            142.0486815658704,
            72.60786446671935,
            108.41839218992632,
            249.85213324617885,
            78.42714374333416,
            158.49008880823558,
            72.29739954318164,
            216.70121778156965,
            241.12340981706672,
            134.47288461139902,
            242.14722556778878,
            311.54033125268825,
            236.62204345407338,
            121.41215887485441,
            230.52073712081102,
            249.9807543702612,
            82.99690711071628,
            117.98544875757884,
            223.66058406749556
        ],
        [
            185.6620481032468,
            121.42489733329282,
            196.8958293370517,
            112.94573311064347,
            173.35554311937673,
            111.15289594126078,
            208.03830666870113,
            124.8824375747194,
            155.45598545154257,
            123.11538759816935,
            231.57734582733286,
            170.8620065539016,
            130.6784898569401,
            165.5129284369877,
            302.41281452823705,
            141.91795567794102,
            73.60935408201752,
            108.80297219983753,
            247.3853610672903,
            80.48433249443006,
            163.89115293791886,
            76.40354944735334,
            216.05398318995088,
            248.01225733760776,
            134.4920254153163,
            242.28650431189487,
            311.624808193015,
            236.32501922912132,
            72.77187906941457,
            110.67839299439798,
            249.2669093061811,
            84.22621475629956,
            113.48955362710407,
            224.88047383253704
        ],
        [
            184.82954261267398,
            121.78557541830972,
            195.24049071777324,
            113.47130860094151,
            171.8022905458274,
            111.74207093601102,
            207.03735315274696,
            126.68701994189787,
            155.15100376245638,
            123.9816133797868,
            230.64768082513862,
            170.89584578201226,
            131.930216829827,
            166.1312548084507,
            302.3085251489893,
            141.41581953378,
            73.60619539107672,
            109.13190189585872,
            246.27145038883867,
            83.28978808418516,
            164.71589825110627,
            78.09038093354464,
            219.07146332540088,
            247.94175596083844,
            139.38104158082774,
            242.104216373496,
            311.6381977023695,
            236.05352722867957,
            121.88481089331148,
            227.23071933791923,
            245.87277190729495,
            87.33646585920096,
            113.6815056384344,
            224.6309831249999
        ]
    ],
    "demosk": [
        {
            "weight": 1,
            "uselv": -1,
            "usex": 1,
            "usey": 1
        },
        {
            "weight": 1,
            "uselv": -1,
            "usex": 1,
            "usey": 1
        },
        {
            "weight": 1,
            "uselv": -1,
            "usex": 1,
            "usey": 1
        },
        {
            "weight": 1,
            "uselv": -1,
            "usex": 1,
            "usey": 1
        },
        {
            "weight": 1,
            "uselv": -1,
            "usex": 1,
            "usey": 1
        },
        {
            "weight": 1,
            "uselv": 0,
            "usex": 1,
            "usey": 1
        },
        {
            "weight": 1,
            "uselv": 0,
            "usex": 1,
            "usey": 1
        },
        {
            "weight": 1,
            "uselv": -1,
            "usex": 1,
            "usey": 1
        },
        {
            "weight": 1,
            "uselv": -1,
            "usex": 1,
            "usey": 1
        },
        {
            "weight": 1,
            "uselv": 0,
            "usex": 1,
            "usey": 1
        },
        {
            "weight": 1,
            "uselv": 0,
            "usex": 1,
            "usey": 1
        },
        {
            "weight": 1,
            "uselv": -2,
            "usex": 1,
            "usey": 1
        },
        {
            "weight": 1,
            "uselv": -2,
            "usex": 1,
            "usey": 1
        },
        {
            "weight": 1,
            "uselv": -2,
            "usex": 1,
            "usey": 1
        },
        {
            "weight": 1,
            "uselv": -2,
            "usex": 1,
            "usey": 1
        },
        {
            "weight": 1,
            "uselv": -2,
            "usex": 1,
            "usey": 1
        },
        {
            "weight": 1,
            "uselv": -2,
            "usex": 1,
            "usey": 1
        }
    ],
    "frame": [
        {
            "pt0": {
                "x": 176.89861850433076,
                "y": 121.64971413066384,
                "weights": 1,
                "uselv": -1,
                "usex": 1,
                "usey": 1
            },
            "pt1": {
                "x": 187.17535856938179,
                "y": 112.49216994696977,
                "weights": 1,
                "uselv": -1,
                "usex": 1,
                "usey": 1
            },
            "pt2": {
                "x": 164.49041586952563,
                "y": 111.17249117719719,
                "weights": 1,
                "uselv": -1,
                "usex": 1,
                "usey": 1
            },
            "pt3": {
                "x": 198.51129073767086,
                "y": 124.59329758648511,
                "weights": 1,
                "uselv": -1,
                "usex": 1,
                "usey": 1
            },
            "pt4": {
                "x": 146.54768177020367,
                "y": 124.26120500345714,
                "weights": 1,
                "uselv": -1,
                "usex": 1,
                "usey": 1
            },
            "pt5": {
                "x": 220.24710068828526,
                "y": 167.05155388296112,
                "weights": 1,
                "uselv": 0,
                "usex": 1,
                "usey": 1
            },
            "pt6": {
                "x": 119.31435853968912,
                "y": 166.22320039624552,
                "weights": 1,
                "uselv": 0,
                "usex": 1,
                "usey": 1
            },
            "pt7": {
                "x": 290.3289066622467,
                "y": 130.21865925033296,
                "weights": 1,
                "uselv": -1,
                "usex": 1,
                "usey": 1
            },
            "pt8": {
                "x": 57.004778758265964,
                "y": 121.00346695687455,
                "weights": 1,
                "uselv": -1,
                "usex": 1,
                "usey": 1
            },
            "pt9": {
                "x": 233.5807825570484,
                "y": 75.11376828677963,
                "weights": 1,
                "uselv": 0,
                "usex": 1,
                "usey": 1
            },
            "pt10": {
                "x": 129.93710351586265,
                "y": 72.51046601200534,
                "weights": 1,
                "uselv": 0,
                "usex": 1,
                "usey": 1
            }
        },
        {
            "pt0": {
                "x": 176.59266741989927,
                "y": 150.21953578528647,
                "weights": 1,
                "uselv": -1,
                "usex": 1,
                "usey": 1
            },
            "pt1": {
                "x": 186.8945574956938,
                "y": 139.08527461472713,
                "weights": 1,
                "uselv": -1,
                "usex": 1,
                "usey": 1
            },
            "pt2": {
                "x": 162.11154515954757,
                "y": 137.6303292041985,
                "weights": 1,
                "uselv": -1,
                "usex": 1,
                "usey": 1
            },
            "pt3": {
                "x": 200.05040722528855,
                "y": 152.31553371311273,
                "weights": 1,
                "uselv": -1,
                "usex": 1,
                "usey": 1
            },
            "pt4": {
                "x": 141.54093323480635,
                "y": 149.92596681616223,
                "weights": 1,
                "uselv": -1,
                "usex": 1,
                "usey": 1
            },
            "pt5": {
                "x": 226.73728043954247,
                "y": 191.20299187966685,
                "weights": 1,
                "uselv": 0,
                "usex": 1,
                "usey": 1
            },
            "pt6": {
                "x": 117.22932737218423,
                "y": 195.31932908719384,
                "weights": 1,
                "uselv": 0,
                "usex": 1,
                "usey": 1
            },
            "pt7": {
                "x": 292.43562347870045,
                "y": 137.25419381027473,
                "weights": 1,
                "uselv": -1,
                "usex": 1,
                "usey": 1
            },
            "pt8": {
                "x": 46.991573083724525,
                "y": 129.93981470849178,
                "weights": 1,
                "uselv": -1,
                "usex": 1,
                "usey": 1
            },
            "pt9": {
                "x": 223.4381519626354,
                "y": 86.1932484391739,
                "weights": 1,
                "uselv": 0,
                "usex": 1,
                "usey": 1
            },
            "pt10": {
                "x": 148.17690774588849,
                "y": 82.46252257381987,
                "weights": 1,
                "uselv": 0,
                "usex": 1,
                "usey": 1
            }
        },
        {
            "pt0": {
                "x": 170.68168012890428,
                "y": 152.44257611665344,
                "weights": 1,
                "uselv": -1,
                "usex": 1,
                "usey": 1
            },
            "pt1": {
                "x": 184.954035927239,
                "y": 141.39471790816293,
                "weights": 1,
                "uselv": -1,
                "usex": 1,
                "usey": 1
            },
            "pt2": {
                "x": 156.43541662171728,
                "y": 139.28642698492973,
                "weights": 1,
                "uselv": -1,
                "usex": 1,
                "usey": 1
            },
            "pt3": {
                "x": 200.11083244477308,
                "y": 155.19596742696515,
                "weights": 1,
                "uselv": -1,
                "usex": 1,
                "usey": 1
            },
            "pt4": {
                "x": 135.75729199493057,
                "y": 150.8283219248244,
                "weights": 1,
                "uselv": -1,
                "usex": 1,
                "usey": 1
            },
            "pt5": {
                "x": 231.97612301128055,
                "y": 208.7609082651465,
                "weights": 1,
                "uselv": 0,
                "usex": 1,
                "usey": 1
            },
            "pt6": {
                "x": 112.60995299487662,
                "y": 207.5781074312427,
                "weights": 1,
                "uselv": 0,
                "usex": 1,
                "usey": 1
            },
            "pt8": {
                "x": 71.81734435515004,
                "y": 118.13139435921626,
                "weights": 1,
                "uselv": 0,
                "usex": 1,
                "usey": 1
            },
            "pt10": {
                "x": 27.73952549776242,
                "y": 14.216729411954024,
                "weights": 1,
                "uselv": 0,
                "usex": 1,
                "usey": 1
            }
        }
    ]
}