{
    "title": "上身活動套裝",
    "comment": "連續動作注意各種細節。",
    "lv": 1,
    "repeat": 2,
    "items": [
        {
            "title": "揮揮手",
            "level": 1,
            "count": 2,
            "holdtime": 3,
            "repeat": 2,
            "comment": "",
            "settings": [],
            "itemdata": {
                "title": "揮揮手",
                "xid": "abc-99",
                "version": "1.0.0",
                "cal": 0.1,
                "icon": "null",
                "demo": [],
                "settings": {
                    "count_type": "0",
                    "recommend1": "",
                    "recommend2": ""
                },
                "frame": [
                    {
                        "pk0": {
                            "x": [
                                176,
                                176,
                                177,
                                177,
                                177,
                                177,
                                177,
                                177,
                                176,
                                176,
                                176,
                                175,
                                175,
                                174,
                                174,
                                174,
                                174,
                                175,
                                175,
                                175,
                                175,
                                175,
                                175,
                                175,
                                175,
                                174,
                                174,
                                174,
                                174,
                                174,
                                174,
                                174,
                                174,
                                174,
                                174,
                                174,
                                173,
                                174,
                                174
                            ],
                            "y": [
                                150,
                                150,
                                149,
                                149,
                                149,
                                149,
                                149,
                                149,
                                150,
                                150,
                                149,
                                149,
                                149,
                                149,
                                149,
                                149,
                                149,
                                149,
                                149,
                                149,
                                149,
                                149,
                                149,
                                149,
                                149,
                                149,
                                149,
                                149,
                                149,
                                149,
                                149,
                                149,
                                149,
                                149,
                                149,
                                149,
                                149,
                                149,
                                149
                            ],
                            "weight": 1,
                            "uselv": -1,
                            "usex": 1,
                            "usey": 1
                        },
                        "pk1": {
                            "x": [
                                186,
                                187,
                                187,
                                187,
                                187,
                                187,
                                187,
                                187,
                                186,
                                186,
                                186,
                                185,
                                185,
                                186,
                                185,
                                185,
                                185,
                                185,
                                185,
                                185,
                                185,
                                185,
                                185,
                                185,
                                185,
                                185,
                                185,
                                185,
                                185,
                                185,
                                185,
                                185,
                                185,
                                185,
                                185,
                                185,
                                185,
                                185,
                                185
                            ],
                            "y": [
                                139,
                                138,
                                138,
                                138,
                                138,
                                138,
                                138,
                                138,
                                138,
                                138,
                                138,
                                138,
                                138,
                                138,
                                138,
                                138,
                                138,
                                138,
                                138,
                                138,
                                138,
                                138,
                                138,
                                138,
                                138,
                                138,
                                138,
                                138,
                                138,
                                138,
                                138,
                                138,
                                138,
                                138,
                                138,
                                138,
                                138,
                                138,
                                138
                            ],
                            "weight": 1,
                            "uselv": -1,
                            "usex": 1,
                            "usey": 1
                        },
                        "pk2": {
                            "x": [
                                162,
                                162,
                                162,
                                162,
                                162,
                                162,
                                162,
                                162,
                                162,
                                162,
                                161,
                                161,
                                161,
                                160,
                                160,
                                160,
                                160,
                                161,
                                161,
                                161,
                                161,
                                161,
                                161,
                                161,
                                161,
                                161,
                                161,
                                160,
                                160,
                                160,
                                160,
                                160,
                                160,
                                160,
                                160,
                                160,
                                160,
                                160,
                                160
                            ],
                            "y": [
                                137,
                                137,
                                137,
                                137,
                                137,
                                137,
                                137,
                                137,
                                137,
                                137,
                                137,
                                137,
                                137,
                                137,
                                137,
                                137,
                                137,
                                137,
                                137,
                                137,
                                137,
                                137,
                                137,
                                137,
                                137,
                                137,
                                137,
                                137,
                                136,
                                136,
                                136,
                                136,
                                136,
                                136,
                                136,
                                136,
                                136,
                                136,
                                136
                            ],
                            "weight": 1,
                            "uselv": -1,
                            "usex": 1,
                            "usey": 1
                        },
                        "pk3": {
                            "x": [
                                200,
                                200,
                                200,
                                200,
                                200,
                                200,
                                199,
                                199,
                                199,
                                199,
                                198,
                                198,
                                198,
                                198,
                                198,
                                198,
                                198,
                                198,
                                198,
                                198,
                                198,
                                198,
                                198,
                                198,
                                198,
                                198,
                                198,
                                197,
                                197,
                                197,
                                197,
                                197,
                                197,
                                197,
                                197,
                                197,
                                197,
                                197,
                                197
                            ],
                            "y": [
                                152,
                                152,
                                152,
                                152,
                                151,
                                151,
                                151,
                                151,
                                151,
                                151,
                                151,
                                151,
                                151,
                                151,
                                151,
                                151,
                                151,
                                151,
                                151,
                                151,
                                151,
                                151,
                                151,
                                151,
                                151,
                                151,
                                151,
                                151,
                                151,
                                151,
                                151,
                                151,
                                151,
                                151,
                                151,
                                151,
                                151,
                                151,
                                151
                            ],
                            "weight": 1,
                            "uselv": -1,
                            "usex": 1,
                            "usey": 1
                        },
                        "pk4": {
                            "x": [
                                141,
                                141,
                                141,
                                141,
                                141,
                                141,
                                141,
                                141,
                                141,
                                141,
                                140,
                                140,
                                140,
                                140,
                                140,
                                139,
                                139,
                                140,
                                140,
                                140,
                                140,
                                140,
                                140,
                                140,
                                140,
                                139,
                                139,
                                139,
                                139,
                                139,
                                139,
                                139,
                                139,
                                139,
                                139,
                                139,
                                139,
                                139,
                                139
                            ],
                            "y": [
                                149,
                                149,
                                149,
                                149,
                                149,
                                149,
                                149,
                                149,
                                149,
                                149,
                                149,
                                149,
                                149,
                                149,
                                149,
                                149,
                                149,
                                148,
                                148,
                                149,
                                148,
                                149,
                                148,
                                148,
                                148,
                                148,
                                149,
                                148,
                                148,
                                148,
                                148,
                                148,
                                148,
                                148,
                                148,
                                148,
                                148,
                                148,
                                148
                            ],
                            "weight": 1,
                            "uselv": -1,
                            "usex": 1,
                            "usey": 1
                        },
                        "pk5": {
                            "x": [
                                226,
                                226,
                                226,
                                226,
                                226,
                                226,
                                226,
                                226,
                                226,
                                226,
                                226,
                                226,
                                226,
                                226,
                                226,
                                226,
                                225,
                                225,
                                225,
                                225,
                                225,
                                226,
                                225,
                                225,
                                225,
                                225,
                                225,
                                225,
                                225,
                                225,
                                225,
                                225,
                                225,
                                225,
                                225,
                                225,
                                225,
                                225,
                                225
                            ],
                            "y": [
                                191,
                                192,
                                192,
                                192,
                                192,
                                192,
                                191,
                                191,
                                190,
                                190,
                                190,
                                191,
                                191,
                                191,
                                190,
                                190,
                                191,
                                190,
                                190,
                                190,
                                190,
                                190,
                                190,
                                190,
                                190,
                                190,
                                190,
                                190,
                                190,
                                190,
                                190,
                                190,
                                190,
                                190,
                                191,
                                191,
                                191,
                                191,
                                191
                            ],
                            "weight": 1,
                            "uselv": 0,
                            "usex": 1,
                            "usey": 1
                        },
                        "pk6": {
                            "x": [
                                117,
                                116,
                                116,
                                116,
                                116,
                                116,
                                116,
                                116,
                                115,
                                115,
                                115,
                                115,
                                115,
                                115,
                                115,
                                115,
                                115,
                                115,
                                115,
                                115,
                                115,
                                115,
                                115,
                                115,
                                115,
                                115,
                                115,
                                115,
                                115,
                                115,
                                115,
                                115,
                                115,
                                115,
                                115,
                                115,
                                115,
                                114,
                                114
                            ],
                            "y": [
                                195,
                                195,
                                195,
                                194,
                                195,
                                195,
                                195,
                                195,
                                195,
                                195,
                                197,
                                197,
                                197,
                                197,
                                197,
                                197,
                                197,
                                197,
                                197,
                                197,
                                197,
                                197,
                                197,
                                197,
                                197,
                                197,
                                197,
                                197,
                                197,
                                197,
                                198,
                                198,
                                198,
                                198,
                                198,
                                198,
                                198,
                                198,
                                198
                            ],
                            "weight": 1,
                            "uselv": 0,
                            "usex": 1,
                            "usey": 1
                        },
                        "pk8": {
                            "x": [
                                46,
                                47,
                                46,
                                46,
                                45,
                                45,
                                44,
                                44,
                                44,
                                44,
                                43,
                                42,
                                43,
                                43,
                                43,
                                43,
                                43,
                                43,
                                43,
                                43,
                                43,
                                43,
                                43,
                                43,
                                41,
                                42,
                                43,
                                42,
                                41,
                                41,
                                41,
                                41,
                                41,
                                41,
                                41,
                                41,
                                40,
                                41,
                                41
                            ],
                            "y": [
                                129,
                                130,
                                130,
                                132,
                                132,
                                132,
                                132,
                                132,
                                132,
                                132,
                                133,
                                134,
                                133,
                                134,
                                134,
                                134,
                                134,
                                134,
                                134,
                                133,
                                134,
                                134,
                                134,
                                134,
                                135,
                                134,
                                134,
                                134,
                                135,
                                135,
                                135,
                                135,
                                135,
                                135,
                                135,
                                135,
                                135,
                                135,
                                135
                            ],
                            "weight": 1,
                            "uselv": -1,
                            "usex": 1,
                            "usey": 1
                        },
                        "pk10": {
                            "x": [
                                148,
                                147,
                                146,
                                148,
                                148,
                                148,
                                148,
                                149,
                                132,
                                148,
                                151,
                                149,
                                131,
                                130,
                                130,
                                147,
                                148,
                                130,
                                148,
                                148,
                                129,
                                129,
                                129,
                                128,
                                148,
                                130,
                                130,
                                129,
                                130,
                                149,
                                150,
                                150,
                                149,
                                150,
                                150,
                                150,
                                150,
                                131,
                                131
                            ],
                            "y": [
                                82,
                                82,
                                81,
                                81,
                                81,
                                82,
                                82,
                                82,
                                86,
                                83,
                                82,
                                84,
                                91,
                                93,
                                92,
                                88,
                                88,
                                93,
                                88,
                                87,
                                93,
                                93,
                                94,
                                94,
                                87,
                                93,
                                92,
                                93,
                                93,
                                86,
                                86,
                                86,
                                86,
                                86,
                                86,
                                86,
                                86,
                                92,
                                92
                            ],
                            "weight": 1,
                            "uselv": 0,
                            "usex": 1,
                            "usey": 1
                        }
                    },
                    {
                        "pk0": {
                            "x": [
                                170,
                                170,
                                170,
                                170,
                                170,
                                170,
                                170,
                                170,
                                170,
                                170,
                                170,
                                170,
                                170,
                                170,
                                170,
                                170,
                                170,
                                170,
                                170,
                                169,
                                169,
                                169
                            ],
                            "y": [
                                152,
                                152,
                                152,
                                152,
                                152,
                                152,
                                152,
                                152,
                                152,
                                152,
                                152,
                                152,
                                152,
                                152,
                                152,
                                152,
                                152,
                                152,
                                152,
                                151,
                                151,
                                151
                            ],
                            "weight": 1,
                            "uselv": -1,
                            "usex": 1,
                            "usey": 1
                        },
                        "pk1": {
                            "x": [
                                184,
                                185,
                                185,
                                184,
                                185,
                                184,
                                185,
                                184,
                                184,
                                184,
                                184,
                                184,
                                184,
                                184,
                                184,
                                184,
                                184,
                                184,
                                184,
                                184,
                                184,
                                183
                            ],
                            "y": [
                                141,
                                141,
                                141,
                                141,
                                141,
                                141,
                                141,
                                141,
                                141,
                                141,
                                141,
                                141,
                                141,
                                141,
                                141,
                                141,
                                141,
                                141,
                                141,
                                140,
                                140,
                                140
                            ],
                            "weight": 1,
                            "uselv": -1,
                            "usex": 1,
                            "usey": 1
                        },
                        "pk2": {
                            "x": [
                                156,
                                156,
                                156,
                                156,
                                156,
                                156,
                                156,
                                156,
                                156,
                                156,
                                156,
                                156,
                                156,
                                156,
                                156,
                                156,
                                156,
                                155,
                                155,
                                155,
                                155,
                                155
                            ],
                            "y": [
                                139,
                                139,
                                139,
                                139,
                                139,
                                139,
                                139,
                                139,
                                139,
                                139,
                                139,
                                139,
                                139,
                                139,
                                139,
                                139,
                                139,
                                139,
                                139,
                                139,
                                139,
                                139
                            ],
                            "weight": 1,
                            "uselv": -1,
                            "usex": 1,
                            "usey": 1
                        },
                        "pk3": {
                            "x": [
                                200,
                                200,
                                199,
                                199,
                                199,
                                199,
                                200,
                                199,
                                200,
                                200,
                                200,
                                200,
                                200,
                                200,
                                200,
                                199,
                                200,
                                200,
                                200,
                                200,
                                200,
                                199
                            ],
                            "y": [
                                155,
                                155,
                                155,
                                155,
                                155,
                                155,
                                155,
                                155,
                                155,
                                155,
                                155,
                                155,
                                155,
                                155,
                                155,
                                155,
                                155,
                                155,
                                154,
                                154,
                                154,
                                155
                            ],
                            "weight": 1,
                            "uselv": -1,
                            "usex": 1,
                            "usey": 1
                        },
                        "pk4": {
                            "x": [
                                135,
                                136,
                                135,
                                135,
                                135,
                                135,
                                135,
                                135,
                                135,
                                135,
                                135,
                                135,
                                135,
                                135,
                                135,
                                135,
                                135,
                                135,
                                135,
                                135,
                                135,
                                135
                            ],
                            "y": [
                                150,
                                150,
                                151,
                                151,
                                151,
                                151,
                                151,
                                151,
                                151,
                                151,
                                151,
                                151,
                                151,
                                151,
                                151,
                                151,
                                151,
                                151,
                                151,
                                151,
                                151,
                                151
                            ],
                            "weight": 1,
                            "uselv": -1,
                            "usex": 1,
                            "usey": 1
                        },
                        "pk5": {
                            "x": [
                                231,
                                232,
                                231,
                                231,
                                231,
                                231,
                                231,
                                231,
                                232,
                                232,
                                231,
                                232,
                                231,
                                232,
                                232,
                                231,
                                232,
                                232,
                                232,
                                232,
                                232,
                                232
                            ],
                            "y": [
                                208,
                                208,
                                208,
                                208,
                                208,
                                208,
                                208,
                                208,
                                208,
                                208,
                                208,
                                208,
                                208,
                                208,
                                208,
                                208,
                                208,
                                208,
                                209,
                                209,
                                209,
                                209
                            ],
                            "weight": 1,
                            "uselv": 0,
                            "usex": 1,
                            "usey": 1
                        },
                        "pk6": {
                            "x": [
                                112,
                                113,
                                112,
                                112,
                                112,
                                112,
                                112,
                                112,
                                112,
                                112,
                                112,
                                112,
                                112,
                                112,
                                111,
                                111,
                                111,
                                111,
                                111,
                                111,
                                112,
                                112
                            ],
                            "y": [
                                207,
                                207,
                                207,
                                207,
                                207,
                                207,
                                207,
                                207,
                                207,
                                207,
                                207,
                                207,
                                207,
                                207,
                                207,
                                207,
                                207,
                                207,
                                207,
                                208,
                                208,
                                208
                            ],
                            "weight": 1,
                            "uselv": 0,
                            "usex": 1,
                            "usey": 1
                        },
                        "pk8": {
                            "x": [
                                71,
                                71,
                                72,
                                72,
                                71,
                                72,
                                72,
                                71,
                                72,
                                72,
                                71,
                                71,
                                71,
                                71,
                                71,
                                72,
                                71,
                                71,
                                71,
                                72,
                                71,
                                71
                            ],
                            "y": [
                                118,
                                117,
                                118,
                                119,
                                117,
                                118,
                                118,
                                117,
                                118,
                                118,
                                117,
                                118,
                                116,
                                116,
                                117,
                                117,
                                117,
                                118,
                                118,
                                118,
                                117,
                                117
                            ],
                            "weight": 1,
                            "uselv": 0,
                            "usex": 1,
                            "usey": 1
                        },
                        "pk10": {
                            "x": [
                                27,
                                28,
                                28,
                                28,
                                28,
                                28,
                                27,
                                27,
                                27,
                                27,
                                27,
                                27,
                                27,
                                27,
                                27,
                                27,
                                27,
                                27,
                                27,
                                27,
                                27,
                                27
                            ],
                            "y": [
                                14,
                                14,
                                16,
                                15,
                                14,
                                14,
                                14,
                                14,
                                13,
                                13,
                                14,
                                14,
                                14,
                                13,
                                14,
                                14,
                                14,
                                14,
                                14,
                                14,
                                14,
                                15
                            ],
                            "weight": 1,
                            "uselv": 0,
                            "usex": 1,
                            "usey": 1
                        }
                    }
                ],
                "info": [
                    {
                        "accuracy_level": 0.9,
                        "stay": 0,
                        "ishold": 0,
                        "count": 0,
                        "common": ""
                    },
                    {
                        "accuracy_level": 0.9,
                        "stay": 1,
                        "ishold": 0,
                        "count": 1,
                        "common": ""
                    }
                ]
            }
        }
    ]
}